{
  "Model" :
  {
    "Type"  : "UserDef"
  },
  "poly1" :
  {
    "Name"  : "EXPR::bkgPdf('TMath::Exp(@1*TMath::Power((@0-150000.)/60000.,1))',:observable:,c[1,-500,500])"
  },
  "poly2" :
  {
    "Name"  : "EXPR::bkgPdf('TMath::Exp(@1*TMath::Power((@0-150000.)/60000.,1)+@2*TMath::Power((@0-150000.)/60000.,2))',:observable:,c[1,-500,500],d[1,-500,500])"
  },
  "poly3" :
  {
    "Name"  : "EXPR::bkgPdf('TMath::Exp(@1*TMath::Power((@0-150000.)/60000.,1)+@2*TMath::Power((@0-150000.)/60000.,2)+@3*TMath::Power((@0-150000.)/60000.,3))',:observable:,c[1,-500,500],d[1,-500,500],e[1,-500,500])"
  },
  "poly4" :
  {
    "Name"  : "EXPR::bkgPdf('TMath::Exp(@1*TMath::Power((@0-150000.)/60000.,1)+@2*TMath::Power((@0-150000.)/60000.,2)+@3*TMath::Power((@0-150000.)/60000.,3)+@4*TMath::Power((@0-150000.)/60000.,4))',:observable:,c[1,-500,500],d[1,-500,500],e[1,-500,500],f[1,-500,500])"
  },
  "poly5" :
  {
    "Name"  : "EXPR::bkgPdf('TMath::Exp(@1*TMath::Power((@0-150000.)/60000.,1)+@2*TMath::Power((@0-150000.)/60000.,2)+@3*TMath::Power((@0-150000.)/60000.,3)+@4*TMath::Power((@0-150000.)/60000.,4)+@5*TMath::Power((@0-150000.)/60000.,5))',:observable:,c[1,-500,500],d[1,-500,500],e[1,-500,500],f[1,-500,500],g[1,-500,500])"
  },
  "poly6" :
  {
    "Name"  : "EXPR::bkgPdf('TMath::Exp(@1*TMath::Power((@0-150000.)/60000.,1)+@2*TMath::Power((@0-150000.)/60000.,2)+@3*TMath::Power((@0-150000.)/60000.,3)+@4*TMath::Power((@0-150000.)/60000.,4)+@5*TMath::Power((@0-150000.)/60000.,5)+@6*TMath::Power((@0-150000.)/60000.,6))',:observable:,c[1,-500,500],d[1,-500,500],e[1,-500,500],f[1,-500,500],g[1,-500,500],h[1,-500,500])"
  },
  "poly7" :
  {
    "Name"  : "EXPR::bkgPdf('TMath::Exp(@1*TMath::Power((@0-150000.)/60000.,1)+@2*TMath::Power((@0-150000.)/60000.,2)+@3*TMath::Power((@0-150000.)/60000.,3)+@4*TMath::Power((@0-150000.)/60000.,4)+@5*TMath::Power((@0-150000.)/60000.,5)+@6*TMath::Power((@0-150000.)/60000.,6)+@7*TMath::Power((@0-150000.)/60000.,7))',:observable:,c[1,-500,500],d[1,-500,500],e[1,-500,500],f[1,-500,500],g[1,-500,500],h[1,-500,500],i[1,-500,500])"
  },
  "poly4_l" :
  {
    "Name"  : "EXPR::bkgPdf('TMath::Exp(@1*TMath::Power((@0-150000.)/60000.,1)+@2*TMath::Power((@0-150000.)/60000.,2)+@3*TMath::Power((@0-150000.)/60000.,3)+@4*TMath::Power((@0-150000.)/60000.,4))',:observable:,l_c[-7.83506e-01,-500,500],l_d[-4.51991e-02,-500,500],l_e[5.64607e-02,-500,500],l_f[-7.12088e-04,-500,500])"
  },
  "poly5_s" :
  {
    "Name"  : "EXPR::bkgPdf('TMath::Exp(@1*TMath::Power((@0-150000.)/60000.,1)+@2*TMath::Power((@0-150000.)/60000.,2)+@3*TMath::Power((@0-150000.)/60000.,3)+@4*TMath::Power((@0-150000.)/60000.,4)+@5*TMath::Power((@0-150000.)/60000.,5))',:observable:,s_c[-6.92911e-01,-500,500],s_d[-1.92172e-01,-500,500],s_e[-1.02978e-01,-500,500],s_f[7.45108e-02,-500,500],s_g[-1.87433e-02,-500,500])"
  },
  "poly5_s_fid" :
  {
    "Name"  : "EXPR::bkgPdf('TMath::Exp(@1*TMath::Power((@0-150000.)/60000.,1)+@2*TMath::Power((@0-150000.)/60000.,2)+@3*TMath::Power((@0-150000.)/60000.,3)+@4*TMath::Power((@0-150000.)/60000.,4))',:observable:,s_c[-5.51758e-01,-500,500],s_d[-6.84054e-02,-500,500],s_e[-9.39285e-02,-500,500],s_f[4.51790e-02,-500,500])"
  }
}
